<svg width="100" height="100" viewBox="0 0 100 100" fill="none" xmlns="http://www.w3.org/2000/svg">
<path d="M100 50C100 77.6471 77.6471 100 50 100C22.3529 100 0 77.6471 0 50C0 22.3529 22.3529 0 50 0C77.6471 0 100 22.3529 100 50Z" fill="#0284C9"/>
<path d="M94.1177 71.7645C88.8236 84.7057 73.1074 99.9997 52.9413 99.9997L19.4119 77.6469L50.5883 43.5293L94.1177 71.7645Z" fill="#0284C9"/>
<path d="M94.1177 71.7645C88.8236 84.7057 73.1074 99.9997 52.9413 99.9997L19.4119 77.6469L50.5883 43.5293L94.1177 71.7645Z" fill="black" fill-opacity="0.2"/>
<path d="M78.4705 78.3528H18.7058L26.5882 43.5293H70.4705L78.4705 78.3528Z" fill="#F7F7F8"/>
<path d="M21.0588 76.3523H76L68.9412 45.4111H28.1177L21.0588 76.3523Z" fill="#F7F7F8"/>
<path d="M42.353 57.2942L60.1177 36.4707L65.5295 41.1766L47.7648 62.0001L42.353 57.2942Z" fill="#EA5C11"/>
<path d="M43.8822 66.4705L47.7645 61.8822L45.1763 59.6469L42.588 57.4116L38.7057 61.9998C38.7057 61.9998 37.5292 68.7057 35.1763 71.5293L40.941 64.2351C40.8233 63.8822 40.941 63.4116 41.1763 63.0587C41.6469 62.5881 42.2351 62.4705 42.588 62.8234C42.941 63.1763 42.941 63.8822 42.588 64.3528C42.2351 64.7057 41.8822 64.8234 41.4116 64.8234L35.1763 71.6469C37.4116 68.7057 43.8822 66.4705 43.8822 66.4705Z" fill="#6B6766"/>
<path d="M59.2939 36.2355L74.1175 18.8237L80.5881 24.3531L65.7645 41.7649L59.2939 36.2355Z" fill="#F39300"/>
<path d="M38.5882 59.2939H28.3529L28 60.941H37.0588L38.5882 59.2939Z" fill="#575352"/>
<path d="M36.1176 65.0586H27.1764L26.8235 66.941H35.647C35.8823 66.3527 36 65.6468 36.1176 65.0586Z" fill="#575352"/>
<path d="M47.2943 65.0586L45.6472 66.941H68.9413L68.5884 65.0586H47.2943Z" fill="#575352"/>
<path d="M51.2941 59.2939L49.8823 60.941H67.7647L67.647 59.2939H51.2941Z" fill="#575352"/>
<path d="M30.4706 48.5879L30.1177 49.9997H47.2941L48.5883 48.5879H30.4706Z" fill="#575352"/>
<path d="M65.8824 49.9997L65.5295 48.5879H60.4706L59.1765 49.9997H65.8824Z" fill="#575352"/>
<path d="M29.1762 54L29.0586 55.5294H42.588L43.9998 54H29.1762Z" fill="#575352"/>
<path d="M66.8236 55.5294L66.5883 54H55.8825L54.4707 55.5294H66.8236Z" fill="#575352"/>
<path d="M69.9999 73.0585H51.5293V70.8232H69.6469L69.9999 73.0585Z" fill="#575352"/>
<path d="M67.7645 43.6466L66.3528 42.3525L80.4704 25.7642L73.5293 19.6466L74.7057 18.1172L83.1763 25.5289L67.7645 43.6466Z" fill="#EA5C11"/>
<path d="M75.5293 18.9409L77.294 16.8232L81.9999 20.8232L80.2352 22.8232L75.5293 18.9409Z" fill="#F39300"/>
<path d="M45.1763 59.5292L62.588 39.0586L65.2939 41.2939L47.8822 61.8821L45.1763 59.5292Z" fill="#E94F1D"/>
<path d="M62.8232 39.2938L76.9409 22.7056L79.8821 25.1762L65.7644 41.7644L62.8232 39.2938Z" fill="#EA5C11"/>
<path d="M59.1765 37.6468L59.8824 36.7056L65.2942 41.4114L64.5883 42.235L59.1765 37.6468Z" fill="#E6342B"/>
</svg>
